
Fri Oct 14 17:17:28 UTC 2022 - INFO: The Slot Request for Service CIII-HD:11247 with Replacement Source CHFD-HD was Successful
Fri Oct 14 17:17:30 UTC 2022 - INFO: The Slot Request for Service CICI-HD:11246 with Replacement Source CKPR-HD was Successful
Fri Oct 14 17:17:31 UTC 2022 - INFO: The Slot Request for Service CJOH-HD:11394 with Replacement Source CKPR-HD was Successful
Fri Oct 14 17:17:33 UTC 2022 - INFO: The Slot Request for Service CFTO-HD:11244 with Replacement Source CKPR-HD was Successful
Fri Oct 14 17:17:34 UTC 2022 - INFO: The Slot Request for Service CJOH-HD:11394 with Replacement Source CKPR-HD was Successful
Fri Oct 14 17:17:36 UTC 2022 - INFO: The Slot Request for Service CIII-HD:11247 with Replacement Source CHFD-HD was Successful
Fri Oct 14 17:17:37 UTC 2022 - INFO: The Slot Request for Service CKND-HD:11250 with Replacement Source CHFD-HD was Successful
Fri Oct 14 17:17:39 UTC 2022 - INFO: The Slot Request for Service CHBX-HD:11245 with Replacement Source CKPR-HD was Successful
Fri Oct 14 17:17:40 UTC 2022 - INFO: The Slot Request for Service CIII-HD:11247 with Replacement Source CHFD-HD was Successful
Fri Oct 14 17:17:42 UTC 2022 - INFO: The Slot Request for Service CFCF-HD:11243 with Replacement Source CKPR-HD was Successful
Fri Oct 14 17:17:43 UTC 2022 - INFO: The Slot Request for Service CICI-HD:11246 with Replacement Source CKPR-HD was Successful
Fri Oct 14 17:17:45 UTC 2022 - INFO: The Slot Request for Service CJOH-HD:11394 with Replacement Source CKPR-HD was Successful
Fri Oct 14 17:17:47 UTC 2022 - INFO: The Slot Request for Service KARE-HD:11255 with Replacement Source CHFD-HD was Successful
Fri Oct 14 17:17:48 UTC 2022 - INFO: The Slot Request for Service CIII-HD:11247 with Replacement Source CHFD-HD was Successful
++++++++++++++++++++++++ End Of Request ++++++++++++++++++++++++
Fri Oct 14 17:44:31 UTC 2022 - ERROR: Service Name [ CIII-HD ] does not match any Service in broadpeak.io
Fri Oct 14 17:44:31 UTC 2022 - ERROR: Source Name [ CKPR-HD ] does not match any Live Source in broadpeak.io
Fri Oct 14 17:44:31 UTC 2022 - ERROR: Service Name [ CJOH-HD ] does not match any Service in broadpeak.io
Fri Oct 14 17:44:31 UTC 2022 - ERROR: Source Name [ CKPR-HD ] does not match any Live Source in broadpeak.io
Fri Oct 14 17:44:32 UTC 2022 - ERROR: Service Name [ CJOH-HD ] does not match any Service in broadpeak.io
Fri Oct 14 17:44:32 UTC 2022 - ERROR: Source Name [ CHFD-HD ] does not match any Live Source in broadpeak.io
Fri Oct 14 17:44:32 UTC 2022 - ERROR: Service Name [ CKND-HD ] does not match any Service in broadpeak.io
Fri Oct 14 17:44:32 UTC 2022 - ERROR: Source Name [ CKPR-HD ] does not match any Live Source in broadpeak.io
Fri Oct 14 17:44:32 UTC 2022 - ERROR: Source Name [ CHFD-HD ] does not match any Live Source in broadpeak.io
Fri Oct 14 17:44:32 UTC 2022 - ERROR: Source Name [ CKPR-HD ] does not match any Live Source in broadpeak.io
Fri Oct 14 17:44:32 UTC 2022 - ERROR: Source Name [ CKPR-HD ] does not match any Live Source in broadpeak.io
Fri Oct 14 17:44:32 UTC 2022 - ERROR: Source Name [ CKPR-HD ] does not match any Live Source in broadpeak.io
Fri Oct 14 17:44:33 UTC 2022 - ERROR: Service Name [ KARE-HD ] does not match any Service in broadpeak.io
Fri Oct 14 17:44:33 UTC 2022 - ERROR: Source Name [ CHFD-HD ] does not match any Live Source in broadpeak.io
++++++++++++++++++++++++ End Of Request ++++++++++++++++++++++++
Fri Oct 14 17:45:45 UTC 2022 - INFO: The Slot Request for Service CIII-HD:11247 with Replacement Source CHFD-HD was Successful
Fri Oct 14 17:45:47 UTC 2022 - INFO: The Slot Request for Service CICI-HD:11246 with Replacement Source CKPR-HD was Successful
Fri Oct 14 17:45:49 UTC 2022 - INFO: The Slot Request for Service CJOH-HD:11394 with Replacement Source CKPR-HD was Successful
Fri Oct 14 17:45:50 UTC 2022 - INFO: The Slot Request for Service CFTO-HD:11244 with Replacement Source CKPR-HD was Successful
Fri Oct 14 17:45:52 UTC 2022 - INFO: The Slot Request for Service CJOH-HD:11394 with Replacement Source CKPR-HD was Successful
Fri Oct 14 17:45:53 UTC 2022 - INFO: The Slot Request for Service CIII-HD:11247 with Replacement Source CHFD-HD was Successful
Fri Oct 14 17:45:55 UTC 2022 - INFO: The Slot Request for Service CKND-HD:11250 with Replacement Source CHFD-HD was Successful
Fri Oct 14 17:45:56 UTC 2022 - INFO: The Slot Request for Service CHBX-HD:11245 with Replacement Source CKPR-HD was Successful
Fri Oct 14 17:45:58 UTC 2022 - INFO: The Slot Request for Service CIII-HD:11247 with Replacement Source CHFD-HD was Successful
Fri Oct 14 17:45:59 UTC 2022 - INFO: The Slot Request for Service CFCF-HD:11243 with Replacement Source CKPR-HD was Successful
Fri Oct 14 17:46:01 UTC 2022 - INFO: The Slot Request for Service CICI-HD:11246 with Replacement Source CKPR-HD was Successful
Fri Oct 14 17:46:03 UTC 2022 - INFO: The Slot Request for Service CJOH-HD:11394 with Replacement Source CKPR-HD was Successful
Fri Oct 14 17:46:05 UTC 2022 - INFO: The Slot Request for Service KARE-HD:11255 with Replacement Source CHFD-HD was Successful
Fri Oct 14 17:46:07 UTC 2022 - INFO: The Slot Request for Service CIII-HD:11247 with Replacement Source CHFD-HD was Successful
++++++++++++++++++++++++ End Of Request ++++++++++++++++++++++++
Fri Oct 14 17:50:12 UTC 2022 - INFO: The Slot Request for Service CIII-HD:11247 with Replacement Source CHFD-HD was Successful
Fri Oct 14 17:50:14 UTC 2022 - INFO: The Slot Request for Service CICI-HD:11246 with Replacement Source CKPR-HD was Successful
Fri Oct 14 17:50:15 UTC 2022 - INFO: The Slot Request for Service CJOH-HD:11394 with Replacement Source CKPR-HD was Successful
Fri Oct 14 17:50:17 UTC 2022 - INFO: The Slot Request for Service CFTO-HD:11244 with Replacement Source CKPR-HD was Successful
Fri Oct 14 17:50:18 UTC 2022 - INFO: The Slot Request for Service CJOH-HD:11394 with Replacement Source CKPR-HD was Successful
Fri Oct 14 17:50:20 UTC 2022 - INFO: The Slot Request for Service CIII-HD:11247 with Replacement Source CHFD-HD was Successful
Fri Oct 14 17:50:21 UTC 2022 - INFO: The Slot Request for Service CKND-HD:11250 with Replacement Source CHFD-HD was Successful
Fri Oct 14 17:50:23 UTC 2022 - INFO: The Slot Request for Service CHBX-HD:11245 with Replacement Source CKPR-HD was Successful
Fri Oct 14 17:50:24 UTC 2022 - INFO: The Slot Request for Service CIII-HD:11247 with Replacement Source CHFD-HD was Successful
Fri Oct 14 17:50:26 UTC 2022 - INFO: The Slot Request for Service CFCF-HD:11243 with Replacement Source CKPR-HD was Successful
Fri Oct 14 17:50:27 UTC 2022 - INFO: The Slot Request for Service CICI-HD:11246 with Replacement Source CKPR-HD was Successful
Fri Oct 14 17:50:29 UTC 2022 - INFO: The Slot Request for Service CJOH-HD:11394 with Replacement Source CKPR-HD was Successful
Fri Oct 14 17:50:31 UTC 2022 - INFO: The Slot Request for Service KARE-HD:11255 with Replacement Source CHFD-HD was Successful
Fri Oct 14 17:50:32 UTC 2022 - INFO: The Slot Request for Service CIII-HD:11247 with Replacement Source CHFD-HD was Successful
++++++++++++++++++++++++ End Of Request ++++++++++++++++++++++++
Fri Oct 14 18:02:54 UTC 2022 - ERROR: Service Name [ CIII-HD ] does not match any Service in broadpeak.io
++++++++++++++++++++++++ End Of Request ++++++++++++++++++++++++
Fri Oct 14 18:04:56 UTC 2022 - INFO: The Slot Request for Service CIII-HD:11247 with Replacement Source CITO-HD was Successful
++++++++++++++++++++++++ End Of Request ++++++++++++++++++++++++
Fri Oct 14 18:24:41 UTC 2022 - ERROR: Source Name [ CITO-HD ] does not match any Live Source in broadpeak.io
++++++++++++++++++++++++ End Of Request ++++++++++++++++++++++++
Fri Oct 14 19:41:28 UTC 2022 - ERROR: Source Name [ CITO-HD ] does not match any Live Source in broadpeak.io
++++++++++++++++++++++++ End Of Request ++++++++++++++++++++++++
