Fri Oct 14 15:51:18 UTC 2022 - INFO: The Slot Request for Service CIII-HD:11247 was Successful
Fri Oct 14 15:51:20 UTC 2022 - INFO: The Slot Request for Service CICI-HD:11246 was Successful
Fri Oct 14 15:51:22 UTC 2022 - INFO: The Slot Request for Service CJOH-HD:11394 was Successful
Fri Oct 14 15:51:24 UTC 2022 - INFO: The Slot Request for Service CFTO-HD:11244 was Successful
Fri Oct 14 15:51:26 UTC 2022 - INFO: The Slot Request for Service CJOH-HD:11394 was Successful
Fri Oct 14 15:51:28 UTC 2022 - INFO: The Slot Request for Service CIII-HD:11247 was Successful
Fri Oct 14 15:51:30 UTC 2022 - INFO: The Slot Request for Service CKND-HD:11250 was Successful
Fri Oct 14 15:51:32 UTC 2022 - INFO: The Slot Request for Service CHBX-HD:11245 was Successful
Fri Oct 14 15:51:34 UTC 2022 - INFO: The Slot Request for Service CIII-HD:11247 was Successful
Fri Oct 14 15:51:36 UTC 2022 - INFO: The Slot Request for Service CFCF-HD:11243 was Successful
Fri Oct 14 15:51:38 UTC 2022 - INFO: The Slot Request for Service CICI-HD:11246 was Successful
Fri Oct 14 15:51:40 UTC 2022 - INFO: The Slot Request for Service CJOH-HD:11394 was Successful
Fri Oct 14 15:51:42 UTC 2022 - INFO: The Slot Request for Service KARE-HD:11255 was Successful
Fri Oct 14 15:51:44 UTC 2022 - INFO: The Slot Request for Service CIII-HD:11247 was Successful
++++++++++++++++++++++++ End Of Request ++++++++++++++++++++++++
