
Thu Nov  3 13:52:01 UTC 2022 - INFO: The Slot Request for Service CIII-HD:11247 with Replacement Source CHFD-HD was Successful
Thu Nov  3 13:52:02 UTC 2022 - INFO: The Slot Request for Service CICI-HD:11246 with Replacement Source CKPR-HD was Successful
Thu Nov  3 13:52:04 UTC 2022 - INFO: The Slot Request for Service CJOH-HD:11394 with Replacement Source CKPR-HD was Successful
Thu Nov  3 13:52:05 UTC 2022 - INFO: The Slot Request for Service CFTO-HD:11244 with Replacement Source CKPR-HD was Successful
Thu Nov  3 13:52:07 UTC 2022 - INFO: The Slot Request for Service CJOH-HD:11394 with Replacement Source CKPR-HD was Successful
Thu Nov  3 13:52:08 UTC 2022 - INFO: The Slot Request for Service CIII-HD:11247 with Replacement Source CHFD-HD was Successful
Thu Nov  3 13:52:10 UTC 2022 - INFO: The Slot Request for Service CKND-HD:11250 with Replacement Source CHFD-HD was Successful
Thu Nov  3 13:52:11 UTC 2022 - INFO: The Slot Request for Service CHBX-HD:11245 with Replacement Source CKPR-HD was Successful
Thu Nov  3 13:52:13 UTC 2022 - INFO: The Slot Request for Service CIII-HD:11247 with Replacement Source CHFD-HD was Successful
Thu Nov  3 13:52:14 UTC 2022 - INFO: The Slot Request for Service CFCF-HD:11243 with Replacement Source CKPR-HD was Successful
Thu Nov  3 13:52:16 UTC 2022 - INFO: The Slot Request for Service CICI-HD:11246 with Replacement Source CKPR-HD was Successful
Thu Nov  3 13:52:17 UTC 2022 - INFO: The Slot Request for Service CJOH-HD:11394 with Replacement Source CKPR-HD was Successful
Thu Nov  3 13:52:19 UTC 2022 - INFO: The Slot Request for Service KARE-HD:11255 with Replacement Source CHFD-HD was Successful
Thu Nov  3 13:52:20 UTC 2022 - INFO: The Slot Request for Service CIII-HD:11247 with Replacement Source CHFD-HD was Successful
++++++++++++++++++++++++ End Of Request ++++++++++++++++++++++++
Thu Nov  3 17:50:46 UTC 2022 - INFO: The Slot Request for Service CIII-HD:11247 with Replacement Source CHFD-HD was Successful
Thu Nov  3 17:50:48 UTC 2022 - INFO: The Slot Request for Service CICI-HD:11246 with Replacement Source CKPR-HD was Successful
Thu Nov  3 17:50:49 UTC 2022 - INFO: The Slot Request for Service CJOH-HD:11394 with Replacement Source CKPR-HD was Successful
Thu Nov  3 17:50:51 UTC 2022 - INFO: The Slot Request for Service CFTO-HD:11244 with Replacement Source CKPR-HD was Successful
Thu Nov  3 17:50:52 UTC 2022 - INFO: The Slot Request for Service CJOH-HD:11394 with Replacement Source CKPR-HD was Successful
Thu Nov  3 17:50:54 UTC 2022 - INFO: The Slot Request for Service CIII-HD:11247 with Replacement Source CHFD-HD was Successful
Thu Nov  3 17:50:55 UTC 2022 - INFO: The Slot Request for Service CKND-HD:11250 with Replacement Source CHFD-HD was Successful
Thu Nov  3 17:50:57 UTC 2022 - INFO: The Slot Request for Service CHBX-HD:11245 with Replacement Source CKPR-HD was Successful
Thu Nov  3 17:50:58 UTC 2022 - INFO: The Slot Request for Service CIII-HD:11247 with Replacement Source CHFD-HD was Successful
Thu Nov  3 17:51:00 UTC 2022 - INFO: The Slot Request for Service CFCF-HD:11243 with Replacement Source CKPR-HD was Successful
Thu Nov  3 17:51:01 UTC 2022 - INFO: The Slot Request for Service CICI-HD:11246 with Replacement Source CKPR-HD was Successful
Thu Nov  3 17:51:03 UTC 2022 - INFO: The Slot Request for Service CJOH-HD:11394 with Replacement Source CKPR-HD was Successful
Thu Nov  3 17:51:04 UTC 2022 - INFO: The Slot Request for Service KARE-HD:11255 with Replacement Source CHFD-HD was Successful
Thu Nov  3 17:51:06 UTC 2022 - INFO: The Slot Request for Service CIII-HD:11247 with Replacement Source CHFD-HD was Successful
++++++++++++++++++++++++ End Of Request ++++++++++++++++++++++++
Thu Nov  3 21:00:09 UTC 2022 - INFO: The Slot Request for Service CIII-HD:11247 with Replacement Source CHFD-HD was Successful
Thu Nov  3 21:00:10 UTC 2022 - INFO: The Slot Request for Service CICI-HD:11246 with Replacement Source CKPR-HD was Successful
Thu Nov  3 21:00:12 UTC 2022 - INFO: The Slot Request for Service CJOH-HD:11394 with Replacement Source CKPR-HD was Successful
Thu Nov  3 21:00:13 UTC 2022 - INFO: The Slot Request for Service CFTO-HD:11244 with Replacement Source CKPR-HD was Successful
Thu Nov  3 21:00:15 UTC 2022 - INFO: The Slot Request for Service CJOH-HD:11394 with Replacement Source CKPR-HD was Successful
Thu Nov  3 21:00:16 UTC 2022 - INFO: The Slot Request for Service CIII-HD:11247 with Replacement Source CHFD-HD was Successful
Thu Nov  3 21:00:18 UTC 2022 - INFO: The Slot Request for Service CKND-HD:11250 with Replacement Source CHFD-HD was Successful
Thu Nov  3 21:00:19 UTC 2022 - INFO: The Slot Request for Service CHBX-HD:11245 with Replacement Source CKPR-HD was Successful
Thu Nov  3 21:00:21 UTC 2022 - INFO: The Slot Request for Service CIII-HD:11247 with Replacement Source CHFD-HD was Successful
Thu Nov  3 21:00:22 UTC 2022 - INFO: The Slot Request for Service CFCF-HD:11243 with Replacement Source CKPR-HD was Successful
Thu Nov  3 21:00:24 UTC 2022 - INFO: The Slot Request for Service CICI-HD:11246 with Replacement Source CKPR-HD was Successful
Thu Nov  3 21:00:25 UTC 2022 - INFO: The Slot Request for Service CJOH-HD:11394 with Replacement Source CKPR-HD was Successful
Thu Nov  3 21:00:27 UTC 2022 - INFO: The Slot Request for Service KARE-HD:11255 with Replacement Source CHFD-HD was Successful
Thu Nov  3 21:00:28 UTC 2022 - INFO: The Slot Request for Service CIII-HD:11247 with Replacement Source CHFD-HD was Successful
++++++++++++++++++++++++ End Of Request ++++++++++++++++++++++++
Thu Nov  3 21:04:00 UTC 2022 - INFO: The Slot Request for Service CIII-HD:11247 with Replacement Source CHFD-HD was Successful
Thu Nov  3 21:04:02 UTC 2022 - INFO: The Slot Request for Service CICI-HD:11246 with Replacement Source CKPR-HD was Successful
Thu Nov  3 21:04:03 UTC 2022 - INFO: The Slot Request for Service CJOH-HD:11394 with Replacement Source CKPR-HD was Successful
Thu Nov  3 21:04:05 UTC 2022 - INFO: The Slot Request for Service CFTO-HD:11244 with Replacement Source CKPR-HD was Successful
Thu Nov  3 21:04:06 UTC 2022 - INFO: The Slot Request for Service CJOH-HD:11394 with Replacement Source CKPR-HD was Successful
Thu Nov  3 21:04:08 UTC 2022 - INFO: The Slot Request for Service CIII-HD:11247 with Replacement Source CHFD-HD was Successful
Thu Nov  3 21:04:09 UTC 2022 - INFO: The Slot Request for Service CKND-HD:11250 with Replacement Source CHFD-HD was Successful
Thu Nov  3 21:04:10 UTC 2022 - INFO: The Slot Request for Service CHBX-HD:11245 with Replacement Source CKPR-HD was Successful
Thu Nov  3 21:04:12 UTC 2022 - INFO: The Slot Request for Service CIII-HD:11247 with Replacement Source CHFD-HD was Successful
Thu Nov  3 21:04:13 UTC 2022 - INFO: The Slot Request for Service CFCF-HD:11243 with Replacement Source CKPR-HD was Successful
Thu Nov  3 21:04:15 UTC 2022 - INFO: The Slot Request for Service CICI-HD:11246 with Replacement Source CKPR-HD was Successful
Thu Nov  3 21:04:16 UTC 2022 - INFO: The Slot Request for Service CJOH-HD:11394 with Replacement Source CKPR-HD was Successful
Thu Nov  3 21:04:18 UTC 2022 - INFO: The Slot Request for Service KARE-HD:11255 with Replacement Source CHFD-HD was Successful
Thu Nov  3 21:04:19 UTC 2022 - INFO: The Slot Request for Service CIII-HD:11247 with Replacement Source CHFD-HD was Successful
++++++++++++++++++++++++ End Of Request ++++++++++++++++++++++++
Thu Nov  3 21:28:32 UTC 2022 - INFO: The Slot Request for Service CIII-HD:11247 with Replacement Source CHFD-HD was Successful
Thu Nov  3 21:28:34 UTC 2022 - INFO: The Slot Request for Service CICI-HD:11246 with Replacement Source CKPR-HD was Successful
Thu Nov  3 21:28:35 UTC 2022 - INFO: The Slot Request for Service CJOH-HD:11394 with Replacement Source CKPR-HD was Successful
Thu Nov  3 21:28:37 UTC 2022 - INFO: The Slot Request for Service CFTO-HD:11244 with Replacement Source CKPR-HD was Successful
Thu Nov  3 21:28:38 UTC 2022 - INFO: The Slot Request for Service CJOH-HD:11394 with Replacement Source CKPR-HD was Successful
Thu Nov  3 21:28:40 UTC 2022 - INFO: The Slot Request for Service CIII-HD:11247 with Replacement Source CHFD-HD was Successful
Thu Nov  3 21:28:41 UTC 2022 - INFO: The Slot Request for Service CKND-HD:11250 with Replacement Source CHFD-HD was Successful
Thu Nov  3 21:28:43 UTC 2022 - INFO: The Slot Request for Service CHBX-HD:11245 with Replacement Source CKPR-HD was Successful
Thu Nov  3 21:28:44 UTC 2022 - INFO: The Slot Request for Service CIII-HD:11247 with Replacement Source CHFD-HD was Successful
Thu Nov  3 21:28:46 UTC 2022 - INFO: The Slot Request for Service CFCF-HD:11243 with Replacement Source CKPR-HD was Successful
Thu Nov  3 21:28:47 UTC 2022 - INFO: The Slot Request for Service CICI-HD:11246 with Replacement Source CKPR-HD was Successful
Thu Nov  3 21:28:49 UTC 2022 - INFO: The Slot Request for Service CJOH-HD:11394 with Replacement Source CKPR-HD was Successful
Thu Nov  3 21:28:50 UTC 2022 - INFO: The Slot Request for Service KARE-HD:11255 with Replacement Source CHFD-HD was Successful
Thu Nov  3 21:28:52 UTC 2022 - INFO: The Slot Request for Service CIII-HD:11247 with Replacement Source CHFD-HD was Successful
++++++++++++++++++++++++ End Of Request ++++++++++++++++++++++++
