
Fri Oct 14 14:00:36 UTC 2022 - INFO: The Slot Request for Service CIII-HD:11247 was Successful
Fri Oct 14 14:00:37 UTC 2022 - INFO: The Slot Request for Service CICI-HD:11246 was Successful
Fri Oct 14 14:00:39 UTC 2022 - INFO: The Slot Request for Service CJOH-HD:11394 was Successful
Fri Oct 14 14:00:40 UTC 2022 - INFO: The Slot Request for Service CFTO-HD:11244 was Successful
++++++++++++++++++++++++ End Of Request ++++++++++++++++++++++++
Fri Oct 14 15:51:18 UTC 2022 - INFO: The Slot Request for Service CIII-HD:11247 was Successful
Fri Oct 14 15:51:20 UTC 2022 - INFO: The Slot Request for Service CICI-HD:11246 was Successful
Fri Oct 14 15:51:22 UTC 2022 - INFO: The Slot Request for Service CJOH-HD:11394 was Successful
Fri Oct 14 15:51:24 UTC 2022 - INFO: The Slot Request for Service CFTO-HD:11244 was Successful
Fri Oct 14 15:51:26 UTC 2022 - INFO: The Slot Request for Service CJOH-HD:11394 was Successful
Fri Oct 14 15:51:28 UTC 2022 - INFO: The Slot Request for Service CIII-HD:11247 was Successful
Fri Oct 14 15:51:30 UTC 2022 - INFO: The Slot Request for Service CKND-HD:11250 was Successful
Fri Oct 14 15:51:32 UTC 2022 - INFO: The Slot Request for Service CHBX-HD:11245 was Successful
Fri Oct 14 15:51:34 UTC 2022 - INFO: The Slot Request for Service CIII-HD:11247 was Successful
Fri Oct 14 15:51:36 UTC 2022 - INFO: The Slot Request for Service CFCF-HD:11243 was Successful
Fri Oct 14 15:51:38 UTC 2022 - INFO: The Slot Request for Service CICI-HD:11246 was Successful
Fri Oct 14 15:51:40 UTC 2022 - INFO: The Slot Request for Service CJOH-HD:11394 was Successful
Fri Oct 14 15:51:42 UTC 2022 - INFO: The Slot Request for Service KARE-HD:11255 was Successful
Fri Oct 14 15:51:44 UTC 2022 - INFO: The Slot Request for Service CIII-HD:11247 was Successful
++++++++++++++++++++++++ End Of Request ++++++++++++++++++++++++
Fri Oct 14 16:04:41 UTC 2022 - ERROR: Service Name [ CIII-HD ] does not match any Service in broadpeak.io
Fri Oct 14 16:04:41 UTC 2022 - ERROR: Service Name [ CICI-HD ] does not match any Service in broadpeak.io
Fri Oct 14 16:04:41 UTC 2022 - ERROR: Service Name [ CJOH-HD ] does not match any Service in broadpeak.io
Fri Oct 14 16:04:41 UTC 2022 - ERROR: Service Name [ CFTO-HD ] does not match any Service in broadpeak.io
Fri Oct 14 16:04:41 UTC 2022 - ERROR: Service Name [ CJOH-HD ] does not match any Service in broadpeak.io
Fri Oct 14 16:04:41 UTC 2022 - ERROR: Service Name [ CIII-HD ] does not match any Service in broadpeak.io
Fri Oct 14 16:04:41 UTC 2022 - ERROR: Service Name [ CKND-HD ] does not match any Service in broadpeak.io
Fri Oct 14 16:04:41 UTC 2022 - ERROR: Service Name [ CHBX-HD ] does not match any Service in broadpeak.io
Fri Oct 14 16:04:41 UTC 2022 - ERROR: Service Name [ CIII-HD ] does not match any Service in broadpeak.io
Fri Oct 14 16:04:41 UTC 2022 - ERROR: Service Name [ CFCF-HD ] does not match any Service in broadpeak.io
Fri Oct 14 16:04:42 UTC 2022 - ERROR: Service Name [ CICI-HD ] does not match any Service in broadpeak.io
Fri Oct 14 16:04:42 UTC 2022 - ERROR: Service Name [ CJOH-HD ] does not match any Service in broadpeak.io
Fri Oct 14 16:04:42 UTC 2022 - ERROR: Service Name [ KARE-HD ] does not match any Service in broadpeak.io
Fri Oct 14 16:04:42 UTC 2022 - ERROR: Service Name [ CIII-HD ] does not match any Service in broadpeak.io
++++++++++++++++++++++++ End Of Request ++++++++++++++++++++++++
Fri Oct 14 16:05:59 UTC 2022 - ERROR: Source Name [ CHFD-HD ] does not match any Live Source in broadpeak.io
Fri Oct 14 16:05:59 UTC 2022 - ERROR: Source Name [ CKPR-HD ] does not match any Live Source in broadpeak.io
Fri Oct 14 16:06:00 UTC 2022 - ERROR: Source Name [ CKPR-HD ] does not match any Live Source in broadpeak.io
Fri Oct 14 16:06:00 UTC 2022 - ERROR: Source Name [ CKPR-HD ] does not match any Live Source in broadpeak.io
Fri Oct 14 16:06:00 UTC 2022 - ERROR: Source Name [ CKPR-HD ] does not match any Live Source in broadpeak.io
Fri Oct 14 16:06:00 UTC 2022 - ERROR: Source Name [ CHFD-HD ] does not match any Live Source in broadpeak.io
Fri Oct 14 16:06:00 UTC 2022 - ERROR: Source Name [ CHFD-HD ] does not match any Live Source in broadpeak.io
Fri Oct 14 16:06:00 UTC 2022 - ERROR: Source Name [ CKPR-HD ] does not match any Live Source in broadpeak.io
Fri Oct 14 16:06:00 UTC 2022 - ERROR: Source Name [ CHFD-HD ] does not match any Live Source in broadpeak.io
Fri Oct 14 16:06:00 UTC 2022 - ERROR: Source Name [ CKPR-HD ] does not match any Live Source in broadpeak.io
Fri Oct 14 16:06:00 UTC 2022 - ERROR: Source Name [ CKPR-HD ] does not match any Live Source in broadpeak.io
Fri Oct 14 16:06:00 UTC 2022 - ERROR: Source Name [ CKPR-HD ] does not match any Live Source in broadpeak.io
Fri Oct 14 16:06:00 UTC 2022 - ERROR: Source Name [ CHFD-HD ] does not match any Live Source in broadpeak.io
Fri Oct 14 16:06:00 UTC 2022 - ERROR: Source Name [ CHFD-HD ] does not match any Live Source in broadpeak.io
++++++++++++++++++++++++ End Of Request ++++++++++++++++++++++++
Fri Oct 14 16:07:59 UTC 2022 - INFO: The Slot Request for Service CIII-HD:11247 was Successful
Fri Oct 14 16:08:00 UTC 2022 - ERROR: Source Name [ CKPR-HD ] does not match any Live Source in broadpeak.io
Fri Oct 14 16:08:00 UTC 2022 - ERROR: Source Name [ CKPR-HD ] does not match any Live Source in broadpeak.io
Fri Oct 14 16:08:00 UTC 2022 - ERROR: Source Name [ CKPR-HD ] does not match any Live Source in broadpeak.io
Fri Oct 14 16:08:00 UTC 2022 - ERROR: Source Name [ CKPR-HD ] does not match any Live Source in broadpeak.io
Fri Oct 14 16:08:02 UTC 2022 - INFO: The Slot Request for Service CIII-HD:11247 was Successful
Fri Oct 14 16:08:04 UTC 2022 - INFO: The Slot Request for Service CKND-HD:11250 was Successful
Fri Oct 14 16:08:06 UTC 2022 - INFO: The Slot Request for Service CHBX-HD:11245 was Successful
Fri Oct 14 16:08:08 UTC 2022 - INFO: The Slot Request for Service CIII-HD:11247 was Successful
Fri Oct 14 16:08:10 UTC 2022 - INFO: The Slot Request for Service CFCF-HD:11243 was Successful
Fri Oct 14 16:08:11 UTC 2022 - INFO: The Slot Request for Service CICI-HD:11246 was Successful
Fri Oct 14 16:08:13 UTC 2022 - INFO: The Slot Request for Service CJOH-HD:11394 was Successful
Fri Oct 14 16:08:15 UTC 2022 - INFO: The Slot Request for Service KARE-HD:11255 was Successful
Fri Oct 14 16:08:17 UTC 2022 - INFO: The Slot Request for Service CIII-HD:11247 was Successful
++++++++++++++++++++++++ End Of Request ++++++++++++++++++++++++
