
Mon Oct 17 17:41:46 UTC 2022 - ERROR: The Following Error happened when attempted the request for CIII-HD:11247 | Replacement soure CHFD-HD:19725 || Bad Request
Mon Oct 17 17:41:47 UTC 2022 - ERROR: The Following Error happened when attempted the request for CICI-HD:11246 | Replacement soure CKPR-HD:19726 || Bad Request
Mon Oct 17 17:41:49 UTC 2022 - ERROR: The Following Error happened when attempted the request for CJOH-HD:11394 | Replacement soure CKPR-HD:19726 || Bad Request
Mon Oct 17 17:41:50 UTC 2022 - INFO: The Slot Request for Service CFTO-HD:11244 with Replacement Source CKPR-HD was Successful
Mon Oct 17 17:41:52 UTC 2022 - ERROR: The Following Error happened when attempted the request for CJOH-HD:11394 | Replacement soure CKPR-HD:19726 || Bad Request
Mon Oct 17 17:41:53 UTC 2022 - INFO: The Slot Request for Service CIII-HD:11247 with Replacement Source CHFD-HD was Successful
Mon Oct 17 17:41:55 UTC 2022 - INFO: The Slot Request for Service CKND-HD:11250 with Replacement Source CHFD-HD was Successful
Mon Oct 17 17:41:56 UTC 2022 - INFO: The Slot Request for Service CHBX-HD:11245 with Replacement Source CKPR-HD was Successful
Mon Oct 17 17:41:58 UTC 2022 - INFO: The Slot Request for Service CIII-HD:11247 with Replacement Source CHFD-HD was Successful
Mon Oct 17 17:41:59 UTC 2022 - INFO: The Slot Request for Service CFCF-HD:11243 with Replacement Source CKPR-HD was Successful
Mon Oct 17 17:42:01 UTC 2022 - INFO: The Slot Request for Service CICI-HD:11246 with Replacement Source CKPR-HD was Successful
Mon Oct 17 17:42:02 UTC 2022 - INFO: The Slot Request for Service CJOH-HD:11394 with Replacement Source CKPR-HD was Successful
Mon Oct 17 17:42:04 UTC 2022 - INFO: The Slot Request for Service KARE-HD:11255 with Replacement Source CHFD-HD was Successful
Mon Oct 17 17:42:05 UTC 2022 - INFO: The Slot Request for Service CIII-HD:11247 with Replacement Source CHFD-HD was Successful
++++++++++++++++++++++++ End Of Request ++++++++++++++++++++++++
Mon Oct 17 19:56:15 UTC 2022 - INFO: The Slot Request for Service CIII-HD:11247 with Replacement Source CHFD-HD was Successful
++++++++++++++++++++++++ End Of Request ++++++++++++++++++++++++
Mon Oct 17 19:57:26 UTC 2022 - INFO: The Slot Request for Service CIII-HD:11247 with Replacement Source CHFD-HD was Successful
++++++++++++++++++++++++ End Of Request ++++++++++++++++++++++++
Tue Oct 18 12:06:36 UTC 2022 - INFO: The Slot Request for Service CIII-HD:11247 with Replacement Source CHFD-HD was Successful
++++++++++++++++++++++++ End Of Request ++++++++++++++++++++++++
Tue Oct 18 13:41:23 UTC 2022 - INFO: The Slot Request for Service CIII-HD:11247 with Replacement Source CKPR-HD was Successful
++++++++++++++++++++++++ End Of Request ++++++++++++++++++++++++
Tue Nov  1 18:52:17 UTC 2022 - INFO: The Slot Request for Service CIII-HD:11247 with Replacement Source CHFD-HD was Successful
Tue Nov  1 18:52:18 UTC 2022 - INFO: The Slot Request for Service CICI-HD:11246 with Replacement Source CKPR-HD was Successful
Tue Nov  1 18:52:20 UTC 2022 - INFO: The Slot Request for Service CJOH-HD:11394 with Replacement Source CKPR-HD was Successful
Tue Nov  1 18:52:21 UTC 2022 - INFO: The Slot Request for Service CFTO-HD:11244 with Replacement Source CKPR-HD was Successful
Tue Nov  1 18:52:23 UTC 2022 - INFO: The Slot Request for Service CJOH-HD:11394 with Replacement Source CKPR-HD was Successful
Tue Nov  1 18:52:24 UTC 2022 - INFO: The Slot Request for Service CIII-HD:11247 with Replacement Source CHFD-HD was Successful
Tue Nov  1 18:52:26 UTC 2022 - INFO: The Slot Request for Service CKND-HD:11250 with Replacement Source CHFD-HD was Successful
Tue Nov  1 18:52:27 UTC 2022 - INFO: The Slot Request for Service CHBX-HD:11245 with Replacement Source CKPR-HD was Successful
Tue Nov  1 18:52:29 UTC 2022 - INFO: The Slot Request for Service CIII-HD:11247 with Replacement Source CHFD-HD was Successful
Tue Nov  1 18:52:30 UTC 2022 - INFO: The Slot Request for Service CFCF-HD:11243 with Replacement Source CKPR-HD was Successful
Tue Nov  1 18:52:32 UTC 2022 - INFO: The Slot Request for Service CICI-HD:11246 with Replacement Source CKPR-HD was Successful
Tue Nov  1 18:52:33 UTC 2022 - INFO: The Slot Request for Service CJOH-HD:11394 with Replacement Source CKPR-HD was Successful
Tue Nov  1 18:52:35 UTC 2022 - INFO: The Slot Request for Service KARE-HD:11255 with Replacement Source CHFD-HD was Successful
Tue Nov  1 18:52:36 UTC 2022 - INFO: The Slot Request for Service CIII-HD:11247 with Replacement Source CHFD-HD was Successful
++++++++++++++++++++++++ End Of Request ++++++++++++++++++++++++
Tue Nov  1 20:18:24 UTC 2022 - INFO: The Slot Request for Service CIII-HD:11247 with Replacement Source CHFD-HD was Successful
Tue Nov  1 20:18:26 UTC 2022 - INFO: The Slot Request for Service CICI-HD:11246 with Replacement Source CKPR-HD was Successful
Tue Nov  1 20:18:27 UTC 2022 - INFO: The Slot Request for Service CJOH-HD:11394 with Replacement Source CKPR-HD was Successful
Tue Nov  1 20:18:29 UTC 2022 - INFO: The Slot Request for Service CFTO-HD:11244 with Replacement Source CKPR-HD was Successful
Tue Nov  1 20:18:30 UTC 2022 - INFO: The Slot Request for Service CJOH-HD:11394 with Replacement Source CKPR-HD was Successful
Tue Nov  1 20:18:32 UTC 2022 - INFO: The Slot Request for Service CIII-HD:11247 with Replacement Source CHFD-HD was Successful
Tue Nov  1 20:18:33 UTC 2022 - INFO: The Slot Request for Service CKND-HD:11250 with Replacement Source CHFD-HD was Successful
Tue Nov  1 20:18:35 UTC 2022 - INFO: The Slot Request for Service CHBX-HD:11245 with Replacement Source CKPR-HD was Successful
Tue Nov  1 20:18:36 UTC 2022 - INFO: The Slot Request for Service CIII-HD:11247 with Replacement Source CHFD-HD was Successful
Tue Nov  1 20:18:38 UTC 2022 - INFO: The Slot Request for Service CFCF-HD:11243 with Replacement Source CKPR-HD was Successful
Tue Nov  1 20:18:39 UTC 2022 - INFO: The Slot Request for Service CICI-HD:11246 with Replacement Source CKPR-HD was Successful
Tue Nov  1 20:18:41 UTC 2022 - INFO: The Slot Request for Service CJOH-HD:11394 with Replacement Source CKPR-HD was Successful
Tue Nov  1 20:18:42 UTC 2022 - INFO: The Slot Request for Service KARE-HD:11255 with Replacement Source CHFD-HD was Successful
Tue Nov  1 20:18:44 UTC 2022 - INFO: The Slot Request for Service CIII-HD:11247 with Replacement Source CHFD-HD was Successful
++++++++++++++++++++++++ End Of Request ++++++++++++++++++++++++
Tue Nov  1 20:33:46 UTC 2022 - INFO: The Slot Request for Service CIII-HD:11247 with Replacement Source CHFD-HD was Successful
Tue Nov  1 20:33:48 UTC 2022 - INFO: The Slot Request for Service CICI-HD:11246 with Replacement Source CKPR-HD was Successful
Tue Nov  1 20:33:49 UTC 2022 - INFO: The Slot Request for Service CJOH-HD:11394 with Replacement Source CKPR-HD was Successful
Tue Nov  1 20:33:51 UTC 2022 - INFO: The Slot Request for Service CFTO-HD:11244 with Replacement Source CKPR-HD was Successful
Tue Nov  1 20:33:52 UTC 2022 - INFO: The Slot Request for Service CJOH-HD:11394 with Replacement Source CKPR-HD was Successful
Tue Nov  1 20:33:54 UTC 2022 - INFO: The Slot Request for Service CIII-HD:11247 with Replacement Source CHFD-HD was Successful
Tue Nov  1 20:33:55 UTC 2022 - INFO: The Slot Request for Service CKND-HD:11250 with Replacement Source CHFD-HD was Successful
Tue Nov  1 20:33:57 UTC 2022 - INFO: The Slot Request for Service CHBX-HD:11245 with Replacement Source CKPR-HD was Successful
Tue Nov  1 20:33:58 UTC 2022 - INFO: The Slot Request for Service CIII-HD:11247 with Replacement Source CHFD-HD was Successful
Tue Nov  1 20:34:00 UTC 2022 - INFO: The Slot Request for Service CFCF-HD:11243 with Replacement Source CKPR-HD was Successful
Tue Nov  1 20:34:01 UTC 2022 - INFO: The Slot Request for Service CICI-HD:11246 with Replacement Source CKPR-HD was Successful
Tue Nov  1 20:34:03 UTC 2022 - INFO: The Slot Request for Service CJOH-HD:11394 with Replacement Source CKPR-HD was Successful
Tue Nov  1 20:34:04 UTC 2022 - INFO: The Slot Request for Service KARE-HD:11255 with Replacement Source CHFD-HD was Successful
Tue Nov  1 20:34:06 UTC 2022 - INFO: The Slot Request for Service CIII-HD:11247 with Replacement Source CHFD-HD was Successful
++++++++++++++++++++++++ End Of Request ++++++++++++++++++++++++
