
Wed Nov  2 18:40:57 UTC 2022 - INFO: The Slot Request for Service CIII-HD:11247 with Replacement Source CHFD-HD was Successful
Wed Nov  2 18:40:59 UTC 2022 - INFO: The Slot Request for Service CICI-HD:11246 with Replacement Source CKPR-HD was Successful
Wed Nov  2 18:41:00 UTC 2022 - INFO: The Slot Request for Service CJOH-HD:11394 with Replacement Source CKPR-HD was Successful
Wed Nov  2 18:41:02 UTC 2022 - INFO: The Slot Request for Service CFTO-HD:11244 with Replacement Source CKPR-HD was Successful
Wed Nov  2 18:41:03 UTC 2022 - INFO: The Slot Request for Service CJOH-HD:11394 with Replacement Source CKPR-HD was Successful
Wed Nov  2 18:41:05 UTC 2022 - INFO: The Slot Request for Service CIII-HD:11247 with Replacement Source CHFD-HD was Successful
Wed Nov  2 18:41:06 UTC 2022 - INFO: The Slot Request for Service CKND-HD:11250 with Replacement Source CHFD-HD was Successful
Wed Nov  2 18:41:08 UTC 2022 - INFO: The Slot Request for Service CHBX-HD:11245 with Replacement Source CKPR-HD was Successful
Wed Nov  2 18:41:09 UTC 2022 - INFO: The Slot Request for Service CIII-HD:11247 with Replacement Source CHFD-HD was Successful
Wed Nov  2 18:41:10 UTC 2022 - INFO: The Slot Request for Service CFCF-HD:11243 with Replacement Source CKPR-HD was Successful
Wed Nov  2 18:41:12 UTC 2022 - INFO: The Slot Request for Service CICI-HD:11246 with Replacement Source CKPR-HD was Successful
Wed Nov  2 18:41:13 UTC 2022 - INFO: The Slot Request for Service CJOH-HD:11394 with Replacement Source CKPR-HD was Successful
Wed Nov  2 18:41:15 UTC 2022 - INFO: The Slot Request for Service KARE-HD:11255 with Replacement Source CHFD-HD was Successful
Wed Nov  2 18:41:16 UTC 2022 - INFO: The Slot Request for Service CIII-HD:11247 with Replacement Source CHFD-HD was Successful
++++++++++++++++++++++++ End Of Request ++++++++++++++++++++++++
Wed Nov  2 18:41:58 UTC 2022 - INFO: The Slot Request for Service CIII-HD:11247 with Replacement Source CHFD-HD was Successful
Wed Nov  2 18:42:00 UTC 2022 - INFO: The Slot Request for Service CICI-HD:11246 with Replacement Source CKPR-HD was Successful
Wed Nov  2 18:42:01 UTC 2022 - INFO: The Slot Request for Service CJOH-HD:11394 with Replacement Source CKPR-HD was Successful
Wed Nov  2 18:42:03 UTC 2022 - INFO: The Slot Request for Service CFTO-HD:11244 with Replacement Source CKPR-HD was Successful
Wed Nov  2 18:42:04 UTC 2022 - INFO: The Slot Request for Service CJOH-HD:11394 with Replacement Source CKPR-HD was Successful
Wed Nov  2 18:42:06 UTC 2022 - INFO: The Slot Request for Service CIII-HD:11247 with Replacement Source CHFD-HD was Successful
Wed Nov  2 18:42:07 UTC 2022 - INFO: The Slot Request for Service CKND-HD:11250 with Replacement Source CHFD-HD was Successful
Wed Nov  2 18:42:09 UTC 2022 - INFO: The Slot Request for Service CHBX-HD:11245 with Replacement Source CKPR-HD was Successful
Wed Nov  2 18:42:10 UTC 2022 - INFO: The Slot Request for Service CIII-HD:11247 with Replacement Source CHFD-HD was Successful
Wed Nov  2 18:42:12 UTC 2022 - INFO: The Slot Request for Service CFCF-HD:11243 with Replacement Source CKPR-HD was Successful
Wed Nov  2 18:42:13 UTC 2022 - INFO: The Slot Request for Service CICI-HD:11246 with Replacement Source CKPR-HD was Successful
Wed Nov  2 18:42:15 UTC 2022 - INFO: The Slot Request for Service CJOH-HD:11394 with Replacement Source CKPR-HD was Successful
Wed Nov  2 18:42:16 UTC 2022 - INFO: The Slot Request for Service KARE-HD:11255 with Replacement Source CHFD-HD was Successful
Wed Nov  2 18:42:18 UTC 2022 - INFO: The Slot Request for Service CIII-HD:11247 with Replacement Source CHFD-HD was Successful
++++++++++++++++++++++++ End Of Request ++++++++++++++++++++++++
Wed Nov  2 19:16:51 UTC 2022 - INFO: The Slot Request for Service CIII-HD:11247 with Replacement Source CHFD-HD was Successful
Wed Nov  2 19:16:53 UTC 2022 - INFO: The Slot Request for Service CICI-HD:11246 with Replacement Source CKPR-HD was Successful
Wed Nov  2 19:16:54 UTC 2022 - INFO: The Slot Request for Service CJOH-HD:11394 with Replacement Source CKPR-HD was Successful
Wed Nov  2 19:16:56 UTC 2022 - INFO: The Slot Request for Service CFTO-HD:11244 with Replacement Source CKPR-HD was Successful
Wed Nov  2 19:16:57 UTC 2022 - INFO: The Slot Request for Service CJOH-HD:11394 with Replacement Source CKPR-HD was Successful
Wed Nov  2 19:16:59 UTC 2022 - INFO: The Slot Request for Service CIII-HD:11247 with Replacement Source CHFD-HD was Successful
Wed Nov  2 19:17:00 UTC 2022 - INFO: The Slot Request for Service CKND-HD:11250 with Replacement Source CHFD-HD was Successful
Wed Nov  2 19:17:02 UTC 2022 - INFO: The Slot Request for Service CHBX-HD:11245 with Replacement Source CKPR-HD was Successful
Wed Nov  2 19:17:03 UTC 2022 - INFO: The Slot Request for Service CIII-HD:11247 with Replacement Source CHFD-HD was Successful
Wed Nov  2 19:17:05 UTC 2022 - INFO: The Slot Request for Service CFCF-HD:11243 with Replacement Source CKPR-HD was Successful
Wed Nov  2 19:17:06 UTC 2022 - INFO: The Slot Request for Service CICI-HD:11246 with Replacement Source CKPR-HD was Successful
Wed Nov  2 19:17:08 UTC 2022 - INFO: The Slot Request for Service CJOH-HD:11394 with Replacement Source CKPR-HD was Successful
Wed Nov  2 19:17:09 UTC 2022 - INFO: The Slot Request for Service KARE-HD:11255 with Replacement Source CHFD-HD was Successful
Wed Nov  2 19:17:11 UTC 2022 - INFO: The Slot Request for Service CIII-HD:11247 with Replacement Source CHFD-HD was Successful
++++++++++++++++++++++++ End Of Request ++++++++++++++++++++++++
Wed Nov  2 21:50:22 UTC 2022 - INFO: The Slot Request for Service CIII-HD:11247 with Replacement Source CHFD-HD was Successful
Wed Nov  2 21:50:23 UTC 2022 - INFO: The Slot Request for Service CICI-HD:11246 with Replacement Source CKPR-HD was Successful
Wed Nov  2 21:50:25 UTC 2022 - INFO: The Slot Request for Service CJOH-HD:11394 with Replacement Source CKPR-HD was Successful
Wed Nov  2 21:50:26 UTC 2022 - INFO: The Slot Request for Service CFTO-HD:11244 with Replacement Source CKPR-HD was Successful
Wed Nov  2 21:50:28 UTC 2022 - INFO: The Slot Request for Service CJOH-HD:11394 with Replacement Source CKPR-HD was Successful
Wed Nov  2 21:50:29 UTC 2022 - INFO: The Slot Request for Service CIII-HD:11247 with Replacement Source CHFD-HD was Successful
Wed Nov  2 21:50:31 UTC 2022 - INFO: The Slot Request for Service CKND-HD:11250 with Replacement Source CHFD-HD was Successful
Wed Nov  2 21:50:32 UTC 2022 - INFO: The Slot Request for Service CHBX-HD:11245 with Replacement Source CKPR-HD was Successful
Wed Nov  2 21:50:34 UTC 2022 - INFO: The Slot Request for Service CIII-HD:11247 with Replacement Source CHFD-HD was Successful
Wed Nov  2 21:50:35 UTC 2022 - INFO: The Slot Request for Service CFCF-HD:11243 with Replacement Source CKPR-HD was Successful
Wed Nov  2 21:50:37 UTC 2022 - INFO: The Slot Request for Service CICI-HD:11246 with Replacement Source CKPR-HD was Successful
Wed Nov  2 21:50:38 UTC 2022 - INFO: The Slot Request for Service CJOH-HD:11394 with Replacement Source CKPR-HD was Successful
Wed Nov  2 21:50:40 UTC 2022 - INFO: The Slot Request for Service KARE-HD:11255 with Replacement Source CHFD-HD was Successful
Wed Nov  2 21:50:41 UTC 2022 - INFO: The Slot Request for Service CIII-HD:11247 with Replacement Source CHFD-HD was Successful
++++++++++++++++++++++++ End Of Request ++++++++++++++++++++++++
