
10/16/2022 - ERROR: The Following Error happened when attempted the request for CIII-HD:11247 | Replacement soure CHFD-HD:19725 || Bad Request
10/16/2022 - ERROR: The Following Error happened when attempted the request for CICI-HD:11246 | Replacement soure CKPR-HD:19726 || Bad Request
Sun Oct 16 14:13:42 UTC 2022 - INFO: The Slot Request for Service CJOH-HD:11394 with Replacement Source CKPR-HD was Successful
Sun Oct 16 14:13:44 UTC 2022 - INFO: The Slot Request for Service CFTO-HD:11244 with Replacement Source CKPR-HD was Successful
Sun Oct 16 14:13:45 UTC 2022 - INFO: The Slot Request for Service CJOH-HD:11394 with Replacement Source CKPR-HD was Successful
Sun Oct 16 14:13:46 UTC 2022 - INFO: The Slot Request for Service CIII-HD:11247 with Replacement Source CHFD-HD was Successful
Sun Oct 16 14:13:48 UTC 2022 - INFO: The Slot Request for Service CKND-HD:11250 with Replacement Source CHFD-HD was Successful
Sun Oct 16 14:13:50 UTC 2022 - INFO: The Slot Request for Service CHBX-HD:11245 with Replacement Source CKPR-HD was Successful
Sun Oct 16 14:13:51 UTC 2022 - INFO: The Slot Request for Service CIII-HD:11247 with Replacement Source CHFD-HD was Successful
Sun Oct 16 14:13:53 UTC 2022 - INFO: The Slot Request for Service CFCF-HD:11243 with Replacement Source CKPR-HD was Successful
Sun Oct 16 14:13:54 UTC 2022 - INFO: The Slot Request for Service CICI-HD:11246 with Replacement Source CKPR-HD was Successful
Sun Oct 16 14:13:55 UTC 2022 - INFO: The Slot Request for Service CJOH-HD:11394 with Replacement Source CKPR-HD was Successful
Sun Oct 16 14:13:57 UTC 2022 - INFO: The Slot Request for Service KARE-HD:11255 with Replacement Source CHFD-HD was Successful
Sun Oct 16 14:13:59 UTC 2022 - INFO: The Slot Request for Service CIII-HD:11247 with Replacement Source CHFD-HD was Successful
++++++++++++++++++++++++ End Of Request ++++++++++++++++++++++++
